# MagicaVoxel @ Ephtracy

# group
o 

# material
mtllib GlitchP.mtl
usemtl palette

# normals
vn -1 0 0
vn 1 0 0
vn 0 0 1
vn 0 0 -1
vn 0 -1 0
vn 0 1 0

# texcoords
vt 0.841797 0.5
vt 0.982422 0.5

# verts
v -0.8 1.8 0.4
v -0.8 1.8 0.2
v -0.8 2 0.2
v -0.8 2 0
v -0.8 2.2 0.2
v -0.8 2.2 0
v -0.8 2.4 0.4
v -0.8 2.4 0.2
v -0.6 1.6 0.4
v -0.6 1.6 0
v -0.6 1.8 0.4
v -0.6 1.8 0.2
v -0.6 2 0.2
v -0.6 2 0
v -0.6 2 -0.2
v -0.6 2.2 0.2
v -0.6 2.2 0
v -0.6 2.2 -0.2
v -0.6 2.4 0.4
v -0.6 2.4 0.2
v -0.6 2.5 0.1
v -0.6 2.5 0
v -0.6 2.6 0.4
v -0.6 2.6 0.1
v -0.5 2.5 0.1
v -0.5 2.5 0
v -0.5 2.6 0.1
v -0.5 2.6 0
v -0.4 1.4 0.4
v -0.4 1.4 0
v -0.4 1.6 0.4
v -0.4 1.6 0
v -0.4 1.6 -0.2
v -0.4 2 0
v -0.4 2 -0.2
v -0.4 2.2 0
v -0.4 2.2 -0.2
v -0.4 2.4 0.5
v -0.4 2.4 0.4
v -0.4 2.5 0.5
v -0.4 2.5 0.4
v -0.4 2.5 0
v -0.4 2.5 -0.2
v -0.4 2.6 0.4
v -0.4 2.6 0
v -0.4 2.8 0.4
v -0.4 2.8 0
v -0.3 2.3 0.5
v -0.3 2.3 0.4
v -0.3 2.4 0.5
v -0.3 2.4 0.4
v -0.3 2.5 0
v -0.3 2.5 -0.2
v -0.3 2.6 0
v -0.3 2.6 -0.2
v -0.2 1 0.4
v -0.2 1 0.2
v -0.2 1.2 0.2
v -0.2 1.2 0
v -0.2 1.4 0.4
v -0.2 1.4 0
v -0.2 1.4 -0.2
v -0.2 1.6 0
v -0.2 1.6 -0.2
v -0.2 1.8 -0.2
v -0.2 1.8 -0.4
v -0.2 2.2 -0.2
v -0.2 2.2 -0.4
v -0.2 2.8 0.4
v -0.2 2.8 0.2
v -0.2 3 0.4
v -0.2 3 0.2
v 5.96046e-008 0.8 0.4
v 5.96046e-008 0.8 0.2
v 5.96046e-008 1 0.4
v 5.96046e-008 1 0.2
v 5.96046e-008 1 0
v 5.96046e-008 1.2 0.2
v 5.96046e-008 1.2 0
v 5.96046e-008 1.2 -0.2
v 5.96046e-008 1.4 0
v 5.96046e-008 1.4 -0.2
v 0.1 2.3 0.5
v 0.1 2.3 0.4
v 0.1 2.4 0.5
v 0.1 2.4 0.4
v 0.3 2.4 0.5
v 0.3 2.4 0.4
v 0.3 2.5 0.5
v 0.3 2.5 0.4
v -0.3 2.4 0.5
v -0.3 2.4 0.4
v -0.3 2.5 0.5
v -0.3 2.5 0.4
v -0.1 2.3 0.5
v -0.1 2.3 0.4
v -0.1 2.4 0.5
v -0.1 2.4 0.4
v 0.2 0.8 0.4
v 0.2 0.8 0.2
v 0.2 1 0.2
v 0.2 1 0
v 0.2 1.2 0.4
v 0.2 1.2 0.2
v 0.2 1.2 0
v 0.2 1.2 -0.2
v 0.2 1.4 0.2
v 0.2 1.4 0
v 0.2 1.6 0
v 0.2 1.6 -0.2
v 0.2 1.8 -0.2
v 0.2 1.8 -0.4
v 0.2 2.2 -0.2
v 0.2 2.2 -0.4
v 0.2 2.8 0.4
v 0.2 2.8 0.2
v 0.2 3 0.4
v 0.2 3 0.2
v 0.3 2.3 0.5
v 0.3 2.3 0.4
v 0.3 2.4 0.5
v 0.3 2.4 0.4
v 0.3 2.5 0
v 0.3 2.5 -0.2
v 0.3 2.6 0
v 0.3 2.6 -0.2
v 0.4 1.2 0.4
v 0.4 1.2 0.2
v 0.4 1.4 0.2
v 0.4 1.4 0
v 0.4 1.6 0.4
v 0.4 1.6 0
v 0.4 1.6 -0.2
v 0.4 2 0
v 0.4 2 -0.2
v 0.4 2.2 0
v 0.4 2.2 -0.2
v 0.4 2.4 0.5
v 0.4 2.4 0.4
v 0.4 2.5 0.5
v 0.4 2.5 0.4
v 0.4 2.5 0
v 0.4 2.5 -0.2
v 0.4 2.6 0.4
v 0.4 2.6 0
v 0.4 2.8 0.4
v 0.4 2.8 0
v 0.5 2.5 0.1
v 0.5 2.5 0
v 0.5 2.6 0.1
v 0.5 2.6 0
v 0.6 1.6 0.4
v 0.6 1.6 0
v 0.6 1.8 0.4
v 0.6 1.8 0.2
v 0.6 2 0.2
v 0.6 2 0
v 0.6 2 -0.2
v 0.6 2.2 0.2
v 0.6 2.2 0
v 0.6 2.2 -0.2
v 0.6 2.4 0.4
v 0.6 2.4 0.2
v 0.6 2.5 0.1
v 0.6 2.5 0
v 0.6 2.6 0.4
v 0.6 2.6 0.1
v 0.8 1.8 0.4
v 0.8 1.8 0.2
v 0.8 2 0.2
v 0.8 2 0
v 0.8 2.2 0.2
v 0.8 2.2 0
v 0.8 2.4 0.4
v 0.8 2.4 0.2
v -0.4 2.4 0.5
v -0.4 2.5 0.5
v -0.3 2.3 0.5
v -0.3 2.4 0.5
v -0.3 2.5 0.5
v -0.1 2.3 0.5
v -0.1 2.4 0.5
v 0.1 2.3 0.5
v 0.1 2.4 0.5
v 0.3 2.3 0.5
v 0.3 2.4 0.5
v 0.3 2.5 0.5
v 0.4 2.4 0.5
v 0.4 2.5 0.5
v -0.8 1.8 0.4
v -0.8 2.4 0.4
v -0.6 1.6 0.4
v -0.6 1.8 0.4
v -0.6 2.4 0.4
v -0.6 2.6 0.4
v -0.4 1.4 0.4
v -0.4 1.6 0.4
v -0.4 2.4 0.4
v -0.4 2.5 0.4
v -0.4 2.6 0.4
v -0.4 2.8 0.4
v -0.3 2.3 0.4
v -0.3 2.4 0.4
v -0.3 2.5 0.4
v -0.2 1 0.4
v -0.2 1.4 0.4
v -0.2 2.8 0.4
v -0.2 3 0.4
v -0.1 2.3 0.4
v -0.1 2.4 0.4
v 5.96046e-008 0.8 0.4
v 5.96046e-008 1 0.4
v 0.1 2.3 0.4
v 0.1 2.4 0.4
v 0.2 0.8 0.4
v 0.2 1.2 0.4
v 0.2 2.8 0.4
v 0.2 3 0.4
v 0.3 2.3 0.4
v 0.3 2.4 0.4
v 0.3 2.5 0.4
v 0.4 1.2 0.4
v 0.4 1.6 0.4
v 0.4 2.4 0.4
v 0.4 2.5 0.4
v 0.4 2.6 0.4
v 0.4 2.8 0.4
v 0.6 1.6 0.4
v 0.6 1.8 0.4
v 0.6 2.4 0.4
v 0.6 2.6 0.4
v 0.8 1.8 0.4
v 0.8 2.4 0.4
v -0.8 1.8 0.2
v -0.8 2 0.2
v -0.8 2.2 0.2
v -0.8 2.4 0.2
v -0.6 1.8 0.2
v -0.6 2 0.2
v -0.6 2.2 0.2
v -0.6 2.4 0.2
v -0.2 1 0.2
v -0.2 1.2 0.2
v -0.2 2.8 0.2
v -0.2 3 0.2
v 5.96046e-008 0.8 0.2
v 5.96046e-008 1 0.2
v 5.96046e-008 1.2 0.2
v 0.2 0.8 0.2
v 0.2 1 0.2
v 0.2 1.2 0.2
v 0.2 1.4 0.2
v 0.2 2.8 0.2
v 0.2 3 0.2
v 0.4 1.2 0.2
v 0.4 1.4 0.2
v 0.6 1.8 0.2
v 0.6 2 0.2
v 0.6 2.2 0.2
v 0.6 2.4 0.2
v 0.8 1.8 0.2
v 0.8 2 0.2
v 0.8 2.2 0.2
v 0.8 2.4 0.2
v -0.6 2.5 0.1
v -0.6 2.6 0.1
v -0.5 2.5 0.1
v -0.5 2.6 0.1
v 0.5 2.5 0.1
v 0.5 2.6 0.1
v 0.6 2.5 0.1
v 0.6 2.6 0.1
v -0.8 2 0
v -0.8 2.2 0
v -0.6 1.6 0
v -0.6 2 0
v -0.6 2.2 0
v -0.6 2.5 0
v -0.5 2.5 0
v -0.5 2.6 0
v -0.4 1.4 0
v -0.4 1.6 0
v -0.4 2 0
v -0.4 2.2 0
v -0.4 2.5 0
v -0.4 2.6 0
v -0.4 2.8 0
v -0.3 2.5 0
v -0.3 2.6 0
v -0.2 1.2 0
v -0.2 1.4 0
v -0.2 1.6 0
v 5.96046e-008 1 0
v 5.96046e-008 1.2 0
v 5.96046e-008 1.4 0
v 0.2 1 0
v 0.2 1.2 0
v 0.2 1.4 0
v 0.2 1.6 0
v 0.3 2.5 0
v 0.3 2.6 0
v 0.4 1.4 0
v 0.4 1.6 0
v 0.4 2 0
v 0.4 2.2 0
v 0.4 2.5 0
v 0.4 2.6 0
v 0.4 2.8 0
v 0.5 2.5 0
v 0.5 2.6 0
v 0.6 1.6 0
v 0.6 2 0
v 0.6 2.2 0
v 0.6 2.5 0
v 0.8 2 0
v 0.8 2.2 0
v -0.6 2 -0.2
v -0.6 2.2 -0.2
v -0.4 1.6 -0.2
v -0.4 2 -0.2
v -0.4 2.2 -0.2
v -0.4 2.5 -0.2
v -0.3 2.5 -0.2
v -0.3 2.6 -0.2
v -0.2 1.4 -0.2
v -0.2 1.6 -0.2
v -0.2 1.8 -0.2
v -0.2 2.2 -0.2
v 5.96046e-008 1.2 -0.2
v 5.96046e-008 1.4 -0.2
v 0.2 1.2 -0.2
v 0.2 1.6 -0.2
v 0.2 1.8 -0.2
v 0.2 2.2 -0.2
v 0.3 2.5 -0.2
v 0.3 2.6 -0.2
v 0.4 1.6 -0.2
v 0.4 2 -0.2
v 0.4 2.2 -0.2
v 0.4 2.5 -0.2
v 0.6 2 -0.2
v 0.6 2.2 -0.2
v -0.2 1.8 -0.4
v -0.2 2.2 -0.4
v 0.2 1.8 -0.4
v 0.2 2.2 -0.4
v 5.96046e-008 0.8 0.4
v 0.2 0.8 0.4
v 5.96046e-008 0.8 0.2
v 0.2 0.8 0.2
v -0.2 1 0.4
v 5.96046e-008 1 0.4
v -0.2 1 0.2
v 5.96046e-008 1 0.2
v 0.2 1 0.2
v 5.96046e-008 1 0
v 0.2 1 0
v 0.2 1.2 0.4
v 0.4 1.2 0.4
v -0.2 1.2 0.2
v 5.96046e-008 1.2 0.2
v 0.2 1.2 0.2
v 0.4 1.2 0.2
v -0.2 1.2 0
v 5.96046e-008 1.2 0
v 0.2 1.2 0
v 5.96046e-008 1.2 -0.2
v 0.2 1.2 -0.2
v -0.4 1.4 0.4
v -0.2 1.4 0.4
v 0.2 1.4 0.2
v 0.4 1.4 0.2
v -0.4 1.4 0
v -0.2 1.4 0
v 5.96046e-008 1.4 0
v 0.2 1.4 0
v 0.4 1.4 0
v -0.2 1.4 -0.2
v 5.96046e-008 1.4 -0.2
v -0.6 1.6 0.4
v -0.4 1.6 0.4
v 0.4 1.6 0.4
v 0.6 1.6 0.4
v -0.6 1.6 0
v -0.4 1.6 0
v -0.2 1.6 0
v 0.2 1.6 0
v 0.4 1.6 0
v 0.6 1.6 0
v -0.4 1.6 -0.2
v -0.2 1.6 -0.2
v 0.2 1.6 -0.2
v 0.4 1.6 -0.2
v -0.8 1.8 0.4
v -0.6 1.8 0.4
v 0.6 1.8 0.4
v 0.8 1.8 0.4
v -0.8 1.8 0.2
v -0.6 1.8 0.2
v 0.6 1.8 0.2
v 0.8 1.8 0.2
v -0.2 1.8 -0.2
v 0.2 1.8 -0.2
v -0.2 1.8 -0.4
v 0.2 1.8 -0.4
v -0.8 2 0.2
v -0.6 2 0.2
v 0.6 2 0.2
v 0.8 2 0.2
v -0.8 2 0
v -0.6 2 0
v -0.4 2 0
v 0.4 2 0
v 0.6 2 0
v 0.8 2 0
v -0.6 2 -0.2
v -0.4 2 -0.2
v 0.4 2 -0.2
v 0.6 2 -0.2
v -0.3 2.3 0.5
v -0.1 2.3 0.5
v 0.1 2.3 0.5
v 0.3 2.3 0.5
v -0.3 2.3 0.4
v -0.1 2.3 0.4
v 0.1 2.3 0.4
v 0.3 2.3 0.4
v -0.4 2.4 0.5
v -0.3 2.4 0.5
v 0.3 2.4 0.5
v 0.4 2.4 0.5
v -0.4 2.4 0.4
v -0.3 2.4 0.4
v 0.3 2.4 0.4
v 0.4 2.4 0.4
v -0.8 2.2 0.2
v -0.6 2.2 0.2
v 0.6 2.2 0.2
v 0.8 2.2 0.2
v -0.8 2.2 0
v -0.6 2.2 0
v -0.4 2.2 0
v 0.4 2.2 0
v 0.6 2.2 0
v 0.8 2.2 0
v -0.6 2.2 -0.2
v -0.4 2.2 -0.2
v -0.2 2.2 -0.2
v 0.2 2.2 -0.2
v 0.4 2.2 -0.2
v 0.6 2.2 -0.2
v -0.2 2.2 -0.4
v 0.2 2.2 -0.4
v -0.3 2.4 0.5
v -0.1 2.4 0.5
v 0.1 2.4 0.5
v 0.3 2.4 0.5
v -0.8 2.4 0.4
v -0.6 2.4 0.4
v -0.3 2.4 0.4
v -0.1 2.4 0.4
v 0.1 2.4 0.4
v 0.3 2.4 0.4
v 0.6 2.4 0.4
v 0.8 2.4 0.4
v -0.8 2.4 0.2
v -0.6 2.4 0.2
v 0.6 2.4 0.2
v 0.8 2.4 0.2
v -0.4 2.5 0.5
v -0.3 2.5 0.5
v 0.3 2.5 0.5
v 0.4 2.5 0.5
v -0.4 2.5 0.4
v -0.3 2.5 0.4
v 0.3 2.5 0.4
v 0.4 2.5 0.4
v -0.6 2.5 0.1
v -0.5 2.5 0.1
v 0.5 2.5 0.1
v 0.6 2.5 0.1
v -0.6 2.5 0
v -0.5 2.5 0
v -0.4 2.5 0
v -0.3 2.5 0
v 0.3 2.5 0
v 0.4 2.5 0
v 0.5 2.5 0
v 0.6 2.5 0
v -0.4 2.5 -0.2
v -0.3 2.5 -0.2
v 0.3 2.5 -0.2
v 0.4 2.5 -0.2
v -0.6 2.6 0.4
v -0.4 2.6 0.4
v 0.4 2.6 0.4
v 0.6 2.6 0.4
v -0.6 2.6 0.1
v -0.5 2.6 0.1
v 0.5 2.6 0.1
v 0.6 2.6 0.1
v -0.5 2.6 0
v -0.4 2.6 0
v -0.3 2.6 0
v 0.3 2.6 0
v 0.4 2.6 0
v 0.5 2.6 0
v -0.3 2.6 -0.2
v 0.3 2.6 -0.2
v -0.4 2.8 0.4
v -0.2 2.8 0.4
v 0.2 2.8 0.4
v 0.4 2.8 0.4
v -0.2 2.8 0.2
v 0.2 2.8 0.2
v -0.4 2.8 0
v 0.4 2.8 0
v -0.2 3 0.4
v 0.2 3 0.4
v -0.2 3 0.2
v 0.2 3 0.2

# faces
f 3/2/1 2/2/1 1/2/1
f 5/2/1 3/2/1 1/2/1
f 5/2/1 4/2/1 3/2/1
f 6/2/1 4/2/1 5/2/1
f 7/2/1 5/2/1 1/2/1
f 8/2/1 5/2/1 7/2/1
f 11/2/1 10/2/1 9/2/1
f 12/2/1 10/2/1 11/2/1
f 13/2/1 10/2/1 12/2/1
f 14/2/1 10/2/1 13/2/1
f 17/2/1 15/2/1 14/2/1
f 18/2/1 15/2/1 17/2/1
f 20/2/1 17/2/1 16/2/1
f 21/2/1 17/2/1 20/2/1
f 21/2/1 20/2/1 19/2/1
f 22/2/1 17/2/1 21/2/1
f 23/2/1 21/2/1 19/2/1
f 24/2/1 21/2/1 23/2/1
f 27/2/1 26/2/1 25/2/1
f 28/2/1 26/2/1 27/2/1
f 31/2/1 30/2/1 29/2/1
f 32/2/1 30/2/1 31/2/1
f 34/2/1 33/2/1 32/2/1
f 35/2/1 33/2/1 34/2/1
f 40/1/1 39/1/1 38/1/1
f 41/1/1 39/1/1 40/1/1
f 42/2/1 37/2/1 36/2/1
f 43/2/1 37/2/1 42/2/1
f 46/2/1 45/2/1 44/2/1
f 47/2/1 45/2/1 46/2/1
f 50/1/1 49/1/1 48/1/1
f 51/1/1 49/1/1 50/1/1
f 54/2/1 53/2/1 52/2/1
f 55/2/1 53/2/1 54/2/1
f 58/2/1 57/2/1 56/2/1
f 60/2/1 58/2/1 56/2/1
f 60/2/1 59/2/1 58/2/1
f 61/2/1 59/2/1 60/2/1
f 63/2/1 62/2/1 61/2/1
f 64/2/1 62/2/1 63/2/1
f 67/2/1 66/2/1 65/2/1
f 68/2/1 66/2/1 67/2/1
f 71/2/1 70/2/1 69/2/1
f 72/2/1 70/2/1 71/2/1
f 75/2/1 74/2/1 73/2/1
f 76/2/1 74/2/1 75/2/1
f 78/2/1 77/2/1 76/2/1
f 79/2/1 77/2/1 78/2/1
f 81/2/1 80/2/1 79/2/1
f 82/2/1 80/2/1 81/2/1
f 85/1/1 84/1/1 83/1/1
f 86/1/1 84/1/1 85/1/1
f 89/1/1 88/1/1 87/1/1
f 90/1/1 88/1/1 89/1/1
f 91/1/2 92/1/2 93/1/2
f 93/1/2 92/1/2 94/1/2
f 95/1/2 96/1/2 97/1/2
f 97/1/2 96/1/2 98/1/2
f 99/2/2 100/2/2 101/2/2
f 99/2/2 101/2/2 103/2/2
f 101/2/2 102/2/2 103/2/2
f 103/2/2 102/2/2 104/2/2
f 104/2/2 102/2/2 105/2/2
f 105/2/2 106/2/2 107/2/2
f 104/2/2 105/2/2 107/2/2
f 107/2/2 106/2/2 108/2/2
f 108/2/2 106/2/2 109/2/2
f 109/2/2 106/2/2 110/2/2
f 111/2/2 112/2/2 113/2/2
f 113/2/2 112/2/2 114/2/2
f 115/2/2 116/2/2 117/2/2
f 117/2/2 116/2/2 118/2/2
f 119/1/2 120/1/2 121/1/2
f 121/1/2 120/1/2 122/1/2
f 123/2/2 124/2/2 125/2/2
f 125/2/2 124/2/2 126/2/2
f 127/2/2 128/2/2 129/2/2
f 127/2/2 129/2/2 131/2/2
f 129/2/2 130/2/2 131/2/2
f 131/2/2 130/2/2 132/2/2
f 132/2/2 133/2/2 134/2/2
f 134/2/2 133/2/2 135/2/2
f 138/1/2 139/1/2 140/1/2
f 140/1/2 139/1/2 141/1/2
f 136/2/2 137/2/2 142/2/2
f 142/2/2 137/2/2 143/2/2
f 144/2/2 145/2/2 146/2/2
f 146/2/2 145/2/2 147/2/2
f 148/2/2 149/2/2 150/2/2
f 150/2/2 149/2/2 151/2/2
f 152/2/2 153/2/2 154/2/2
f 154/2/2 153/2/2 155/2/2
f 155/2/2 153/2/2 156/2/2
f 156/2/2 153/2/2 157/2/2
f 157/2/2 158/2/2 160/2/2
f 160/2/2 158/2/2 161/2/2
f 159/2/2 160/2/2 163/2/2
f 163/2/2 160/2/2 164/2/2
f 162/2/2 163/2/2 164/2/2
f 164/2/2 160/2/2 165/2/2
f 162/2/2 164/2/2 166/2/2
f 166/2/2 164/2/2 167/2/2
f 168/2/2 169/2/2 170/2/2
f 168/2/2 170/2/2 172/2/2
f 170/2/2 171/2/2 172/2/2
f 172/2/2 171/2/2 173/2/2
f 168/2/2 172/2/2 174/2/2
f 174/2/2 172/2/2 175/2/2
f 179/1/3 177/1/3 176/1/3
f 180/1/3 177/1/3 179/1/3
f 181/1/3 179/1/3 178/1/3
f 182/1/3 179/1/3 181/1/3
f 185/1/3 184/1/3 183/1/3
f 186/1/3 184/1/3 185/1/3
f 188/1/3 187/1/3 186/1/3
f 189/1/3 187/1/3 188/1/3
f 193/2/3 191/2/3 190/2/3
f 194/2/3 191/2/3 193/2/3
f 197/2/3 193/2/3 192/2/3
f 197/2/3 195/2/3 194/2/3
f 197/2/3 194/2/3 193/2/3
f 198/2/3 195/2/3 197/2/3
f 199/2/3 195/2/3 198/2/3
f 200/2/3 195/2/3 199/2/3
f 202/2/3 197/2/3 196/2/3
f 202/2/3 198/2/3 197/2/3
f 203/2/3 198/2/3 202/2/3
f 204/2/3 201/2/3 200/2/3
f 204/2/3 200/2/3 199/2/3
f 206/2/3 202/2/3 196/2/3
f 207/2/3 204/2/3 203/2/3
f 207/2/3 201/2/3 204/2/3
f 209/2/3 206/2/3 205/2/3
f 209/2/3 202/2/3 206/2/3
f 210/2/3 208/2/3 207/2/3
f 210/2/3 207/2/3 203/2/3
f 212/2/3 209/2/3 205/2/3
f 212/2/3 210/2/3 209/2/3
f 213/2/3 210/2/3 212/2/3
f 213/2/3 212/2/3 211/2/3
f 214/2/3 208/2/3 210/2/3
f 214/2/3 210/2/3 213/2/3
f 215/2/3 213/2/3 211/2/3
f 216/2/3 213/2/3 215/2/3
f 217/2/3 208/2/3 214/2/3
f 218/2/3 208/2/3 217/2/3
f 219/2/3 213/2/3 216/2/3
f 220/2/3 217/2/3 214/2/3
f 221/2/3 217/2/3 220/2/3
f 222/2/3 219/2/3 216/2/3
f 222/2/3 220/2/3 219/2/3
f 223/2/3 220/2/3 222/2/3
f 224/2/3 220/2/3 223/2/3
f 225/2/3 217/2/3 221/2/3
f 226/2/3 217/2/3 225/2/3
f 227/2/3 217/2/3 226/2/3
f 228/2/3 224/2/3 223/2/3
f 228/2/3 226/2/3 225/2/3
f 228/2/3 225/2/3 224/2/3
f 229/2/3 226/2/3 228/2/3
f 230/2/3 226/2/3 229/2/3
f 231/2/3 226/2/3 230/2/3
f 232/2/3 230/2/3 229/2/3
f 233/2/3 230/2/3 232/2/3
f 234/2/4 235/2/4 238/2/4
f 238/2/4 235/2/4 239/2/4
f 236/2/4 237/2/4 240/2/4
f 240/2/4 237/2/4 241/2/4
f 242/2/4 243/2/4 247/2/4
f 247/2/4 243/2/4 248/2/4
f 246/2/4 247/2/4 249/2/4
f 249/2/4 247/2/4 250/2/4
f 244/2/4 245/2/4 253/2/4
f 253/2/4 245/2/4 254/2/4
f 251/2/4 252/2/4 255/2/4
f 255/2/4 252/2/4 256/2/4
f 257/2/4 258/2/4 261/2/4
f 261/2/4 258/2/4 262/2/4
f 259/2/4 260/2/4 263/2/4
f 263/2/4 260/2/4 264/2/4
f 265/2/4 266/2/4 267/2/4
f 267/2/4 266/2/4 268/2/4
f 269/2/4 270/2/4 271/2/4
f 271/2/4 270/2/4 272/2/4
f 273/2/4 274/2/4 276/2/4
f 276/2/4 274/2/4 277/2/4
f 277/2/4 278/2/4 279/2/4
f 275/2/4 276/2/4 282/2/4
f 282/2/4 276/2/4 283/2/4
f 279/2/4 280/2/4 284/2/4
f 277/2/4 279/2/4 284/2/4
f 284/2/4 280/2/4 285/2/4
f 285/2/4 280/2/4 286/2/4
f 286/2/4 287/2/4 288/2/4
f 285/2/4 286/2/4 288/2/4
f 288/2/4 287/2/4 289/2/4
f 281/2/4 282/2/4 291/2/4
f 291/2/4 282/2/4 292/2/4
f 290/2/4 291/2/4 294/2/4
f 294/2/4 291/2/4 295/2/4
f 293/2/4 294/2/4 296/2/4
f 296/2/4 294/2/4 297/2/4
f 289/2/4 287/2/4 301/2/4
f 298/2/4 299/2/4 302/2/4
f 302/2/4 299/2/4 303/2/4
f 300/2/4 301/2/4 306/2/4
f 301/2/4 287/2/4 307/2/4
f 306/2/4 301/2/4 307/2/4
f 307/2/4 287/2/4 308/2/4
f 305/2/4 306/2/4 309/2/4
f 306/2/4 307/2/4 309/2/4
f 309/2/4 307/2/4 310/2/4
f 303/2/4 304/2/4 311/2/4
f 311/2/4 304/2/4 312/2/4
f 305/2/4 309/2/4 313/2/4
f 313/2/4 309/2/4 314/2/4
f 312/2/4 313/2/4 315/2/4
f 315/2/4 313/2/4 316/2/4
f 317/2/4 318/2/4 320/2/4
f 320/2/4 318/2/4 321/2/4
f 319/2/4 320/2/4 323/2/4
f 321/2/4 322/2/4 323/2/4
f 320/2/4 321/2/4 323/2/4
f 319/2/4 323/2/4 326/2/4
f 323/2/4 324/2/4 326/2/4
f 326/2/4 324/2/4 327/2/4
f 327/2/4 324/2/4 328/2/4
f 325/2/4 326/2/4 330/2/4
f 326/2/4 327/2/4 330/2/4
f 329/2/4 330/2/4 331/2/4
f 330/2/4 327/2/4 332/2/4
f 331/2/4 330/2/4 332/2/4
f 332/2/4 327/2/4 333/2/4
f 328/2/4 324/2/4 334/2/4
f 332/2/4 333/2/4 335/2/4
f 333/2/4 334/2/4 335/2/4
f 334/2/4 324/2/4 335/2/4
f 335/2/4 324/2/4 336/2/4
f 332/2/4 335/2/4 337/2/4
f 337/2/4 335/2/4 338/2/4
f 338/2/4 335/2/4 339/2/4
f 339/2/4 335/2/4 340/2/4
f 338/2/4 339/2/4 341/2/4
f 341/2/4 339/2/4 342/2/4
f 343/2/4 344/2/4 345/2/4
f 345/2/4 344/2/4 346/2/4
f 349/2/5 348/2/5 347/2/5
f 350/2/5 348/2/5 349/2/5
f 353/2/5 352/2/5 351/2/5
f 354/2/5 352/2/5 353/2/5
f 356/2/5 355/2/5 354/2/5
f 357/2/5 355/2/5 356/2/5
f 362/2/5 359/2/5 358/2/5
f 363/2/5 359/2/5 362/2/5
f 364/2/5 361/2/5 360/2/5
f 365/2/5 361/2/5 364/2/5
f 367/2/5 366/2/5 365/2/5
f 368/2/5 366/2/5 367/2/5
f 373/2/5 370/2/5 369/2/5
f 374/2/5 370/2/5 373/2/5
f 376/2/5 372/2/5 371/2/5
f 377/2/5 372/2/5 376/2/5
f 378/2/5 375/2/5 374/2/5
f 379/2/5 375/2/5 378/2/5
f 384/2/5 381/2/5 380/2/5
f 385/2/5 381/2/5 384/2/5
f 388/2/5 383/2/5 382/2/5
f 389/2/5 383/2/5 388/2/5
f 390/2/5 386/2/5 385/2/5
f 391/2/5 386/2/5 390/2/5
f 392/2/5 388/2/5 387/2/5
f 393/2/5 388/2/5 392/2/5
f 398/2/5 395/2/5 394/2/5
f 399/2/5 395/2/5 398/2/5
f 400/2/5 397/2/5 396/2/5
f 401/2/5 397/2/5 400/2/5
f 404/2/5 403/2/5 402/2/5
f 405/2/5 403/2/5 404/2/5
f 410/2/5 407/2/5 406/2/5
f 411/2/5 407/2/5 410/2/5
f 414/2/5 409/2/5 408/2/5
f 415/2/5 409/2/5 414/2/5
f 416/2/5 412/2/5 411/2/5
f 417/2/5 412/2/5 416/2/5
f 418/2/5 414/2/5 413/2/5
f 419/2/5 414/2/5 418/2/5
f 424/1/5 421/1/5 420/1/5
f 425/1/5 421/1/5 424/1/5
f 426/1/5 423/1/5 422/1/5
f 427/1/5 423/1/5 426/1/5
f 432/1/5 429/1/5 428/1/5
f 433/1/5 429/1/5 432/1/5
f 434/1/5 431/1/5 430/1/5
f 435/1/5 431/1/5 434/1/5
f 436/2/6 437/2/6 440/2/6
f 440/2/6 437/2/6 441/2/6
f 438/2/6 439/2/6 444/2/6
f 444/2/6 439/2/6 445/2/6
f 441/2/6 442/2/6 446/2/6
f 446/2/6 442/2/6 447/2/6
f 443/2/6 444/2/6 450/2/6
f 450/2/6 444/2/6 451/2/6
f 448/2/6 449/2/6 452/2/6
f 452/2/6 449/2/6 453/2/6
f 454/1/6 455/1/6 460/1/6
f 460/1/6 455/1/6 461/1/6
f 456/1/6 457/1/6 462/1/6
f 462/1/6 457/1/6 463/1/6
f 458/2/6 459/2/6 466/2/6
f 466/2/6 459/2/6 467/2/6
f 464/2/6 465/2/6 468/2/6
f 468/2/6 465/2/6 469/2/6
f 470/1/6 471/1/6 474/1/6
f 474/1/6 471/1/6 475/1/6
f 472/1/6 473/1/6 476/1/6
f 476/1/6 473/1/6 477/1/6
f 478/2/6 479/2/6 482/2/6
f 482/2/6 479/2/6 483/2/6
f 480/2/6 481/2/6 488/2/6
f 488/2/6 481/2/6 489/2/6
f 484/2/6 485/2/6 490/2/6
f 490/2/6 485/2/6 491/2/6
f 486/2/6 487/2/6 492/2/6
f 492/2/6 487/2/6 493/2/6
f 494/2/6 495/2/6 498/2/6
f 498/2/6 495/2/6 499/2/6
f 496/2/6 497/2/6 500/2/6
f 500/2/6 497/2/6 501/2/6
f 499/2/6 495/2/6 502/2/6
f 502/2/6 495/2/6 503/2/6
f 496/2/6 500/2/6 506/2/6
f 506/2/6 500/2/6 507/2/6
f 504/2/6 505/2/6 508/2/6
f 508/2/6 505/2/6 509/2/6
f 510/2/6 511/2/6 514/2/6
f 512/2/6 513/2/6 515/2/6
f 510/2/6 514/2/6 516/2/6
f 514/2/6 515/2/6 516/2/6
f 515/2/6 513/2/6 517/2/6
f 516/2/6 515/2/6 517/2/6
f 518/2/6 519/2/6 520/2/6
f 520/2/6 519/2/6 521/2/6
